<?xml version="1.0" encoding="UTF-8"?>
<session version="1.0">
<refactoring comment="Delete resource &apos;JavaFXApp&apos;" deleteContents="false" description="Delete resource &apos;JavaFXApp&apos;" element1="/JavaFXApp" flags="7" id="org.eclipse.ltk.core.refactoring.delete.resources" resources="1" stamp="1493464708749"/>
</session>